{
    "$schema": "http://json-schema.org/schema",
    "id": "FourPanelsAppSharedProjectPipe",
    "title": "Angular Pipe Options Schema",
    "type": "object",
    "description": "Creates a new generic pipe definition in the given or default project.",
    "properties": {
        "name": {
            "type": "string",
            "description": "The name of the pipe.",
            "$default": {
                "$source": "argv",
                "index": 0
            },
            "x-prompt": "Name of pipe?"
        },
        "module": {
            "type": "string",
            "description": "The declaring NgModule.",
            "alias": "m",
            "$default": {
                "$source": "argv",
                "index": 1
            },
            "x-prompt": "Declaring Module?"
        },
        "platformType": {
            "type": "string",
            "description": "Directive will be used in Web, Ns or both platform",
            "$default": {
                "$source": "argv",
                "index": 2
            },
            "x-prompt": {
                "message": "Type",
                "type": "list",
                "items": [
                    { "value": "shared", "label": "Shared" },
                    { "value": "web", "label": "Web" },
                    { "value": "ns", "label": "Ns" }
                ]
            }
        }
    },
    "required": [
        "name",
        "module",
        "platformType"
    ]
}
